<?xml version="1.0" encoding="utf-8"?>
<!-- Generator: Adobe Illustrator 19.2.0, SVG Export Plug-In . SVG Version: 6.00 Build 0)  -->
<svg version="1.1" xmlns="http://www.w3.org/2000/svg" xmlns:xlink="http://www.w3.org/1999/xlink" x="0px" y="0px"
	 viewBox="0 0 80 80" style="enable-background:new 0 0 80 80;" xml:space="preserve">
<style type="text/css">
	.st0{fill:none;stroke:#00ADEF;stroke-width:2;stroke-linecap:round;stroke-linejoin:round;stroke-miterlimit:10;}
</style>
<g id="Layer_2">
</g>
<g id="Layer_1">
	<g>
		<path class="st0" d="M20.9,60.1l10.5,2.7l8.5-4.7l8.5,4.7l10.5-2.7 M45,19.5v-4.6 M39.8,21.2v-7.8 M34.5,19.5v-4.6 M48,35.4
			c0.3,0.9,0.7,1.5,1.3,1.7c1.4,0.3,3-2,3.6-5c0.7-3.1,0.1-5.8-1.2-6.1c-0.3-0.1-0.6,0-0.9,0.1 M59.1,16.5
			c-10.7,6.6-14.3,22.1-10.6,46.3 M63.9,30.9C63.9,17.7,53.2,7,40,7c-13.2,0-24,10.7-24,24 M63.9,30.9c-8.1,4.8-10,13.7-5.8,27
			c1.2,3,1.8,4.5,1.8,4.5C46.6,70.8,40,75,40,75s-6.7-4.2-20-12.6c0,0,0.6-1.5,1.8-4.5c4.2-13.2,2.3-22.2-5.8-27 M32,35.4
			c-0.2,0.9-0.7,1.5-1.3,1.7c-1.3,0.3-3-2-3.6-5S27,26.3,28.3,26c0.3-0.1,0.6,0,0.9,0.1 M20.9,16.5c10.7,6.6,14.3,22.1,10.6,46.3
			 M14.6,36.1c2.7,0,5,5.1,5,11.4c0,6.3-2.2,11.4-5,11.4s-5-5.1-5-11.4C9.7,41.2,11.9,36.1,14.6,36.1L14.6,36.1z M65.4,36.1
			c-2.7,0-5,5.1-5,11.4c0,6.3,2.2,11.4,5,11.4s5-5.1,5-11.4C70.3,41.2,68.1,36.1,65.4,36.1L65.4,36.1z"/>
	</g>
</g>
</svg>
