<?xml version="1.0" standalone="no"?>
<!DOCTYPE svg PUBLIC "-//W3C//DTD SVG 20010904//EN"
 "http://www.w3.org/TR/2001/REC-SVG-20010904/DTD/svg10.dtd">
<svg version="1.0" xmlns="http://www.w3.org/2000/svg"
 width="16.000000pt" height="16.000000pt" viewBox="0 0 16.000000 16.000000"
 preserveAspectRatio="xMidYMid meet">
<metadata>
Created by potrace 1.11, written by Peter Selinger 2001-2013
</metadata>
<g transform="translate(0.000000,16.000000) scale(0.006154,-0.006154)"
fill="#000000" stroke="none">
<path d="M1267 1688 c-35 -26 -28 -52 29 -109 30 -29 67 -79 82 -109 23 -47
27 -67 27 -145 0 -76 -4 -98 -26 -145 -52 -111 -138 -172 -248 -176 -106 -4
-187 39 -248 133 -34 54 -62 149 -57 193 11 86 18 110 46 162 17 32 34 58 38
58 4 0 10 9 13 19 5 22 -25 60 -48 62 -8 1 -25 2 -37 3 -13 1 -60 -10 -105
-26 -231 -79 -406 -193 -533 -344 -27 -33 -39 -52 -83 -132 -32 -59 -32 -94 1
-41 18 29 124 136 175 176 33 26 147 93 203 118 88 41 274 106 274 96 0 -5 -7
-26 -16 -47 -22 -53 -29 -162 -14 -226 39 -169 188 -294 361 -303 31 -2 74 1
95 6 22 5 46 11 55 13 38 9 101 49 142 89 81 79 125 186 122 297 -3 74 -18
124 -59 192 l-34 57 92 -5 c50 -2 102 -7 116 -9 14 -3 50 -7 80 -11 30 -3 57
-7 61 -9 3 -2 21 -7 40 -10 83 -14 265 -69 339 -102 118 -51 252 -131 305
-180 11 -10 29 -25 40 -33 19 -15 19 -15 1 14 -110 173 -382 350 -636 416
-131 33 -170 42 -265 56 -16 3 -93 7 -171 10 -103 3 -145 1 -157 -8z"/>
<path d="M1080 1402 c-43 -15 -66 -96 -37 -133 18 -24 53 -40 79 -35 13 3 26
5 29 5 12 2 42 54 43 75 5 59 -59 107 -114 88z"/>
</g>
</svg>
