<?xml version="1.0" encoding="utf-8"?>
<!DOCTYPE svg PUBLIC "-//W3C//DTD SVG 1.1//EN" "http://www.w3.org/Graphics/SVG/1.1/DTD/svg11.dtd">
<svg version="1.1" id="Layer1" xmlns="http://www.w3.org/2000/svg" xmlns:xlink="http://www.w3.org/1999/xlink" x="0px" y="0px"
	 width="57.693px" height="57.693px" viewBox="0 0 57.693 57.693" enable-background="new 0 0 57.693 57.693" xml:space="preserve">
<circle fill="#E7F6FB" stroke="#E7F6FB" stroke-miterlimit="10" cx="28.846" cy="28.846" r="28.346"/>
</svg>
