<?xml version="1.0" encoding="utf-8"?>
<!-- Generator: Adobe Illustrator 19.2.0, SVG Export Plug-In . SVG Version: 6.00 Build 0)  -->
<svg version="1.1" xmlns="http://www.w3.org/2000/svg" xmlns:xlink="http://www.w3.org/1999/xlink" x="0px" y="0px"
	 viewBox="0 0 80 80" style="enable-background:new 0 0 80 80;" xml:space="preserve">
<style type="text/css">
	.st0{fill:none;stroke:#00ADEF;stroke-width:2;stroke-miterlimit:10;}
</style>
<g id="Layer_2">
</g>
<g id="Layer_1">
	<g>
		<path class="st0" d="M31.8,15.2c5.5-2.6,10.9-2.6,16.4,0 M46.2,69.7c2.3-3.9,2.5-7.6,0.7-11.1 M33.8,69.7
			c-2.3-3.9-2.5-7.6-0.7-11.1 M32.2,65.6h15.6 M33.3,33h13.4 M33.2,40h13.6 M35.4,47h9.2 M33.2,58.6h13.7 M69.8,49.3
			C65,49,49.7,65.3,46.2,69.7c-3.9,3.9-8.4,3.9-12.3,0C30.3,65.3,15.1,49,10.2,49.3 M40,72.6L40,72.6L40,72.6 M21,49.8
			c3.2,1.4,6.9,4.8,12.2,8.8l3.4-4.6c1.2-1.5,0.9-2.7,0-4.5c-0.9-1.8-1.6-3.5-2.2-5.1c-2.2-6.2-3.9-19.9,5.7-19.9
			c9.5,0,7.8,13.7,5.6,19.9c-0.6,1.6-1.3,3.3-2.2,5.1c-0.9,1.7-1.2,2.9,0,4.5l3.4,4.6c5.2-4,9-7.4,12.2-8.8
			c3.7-1.4,7.3-1.6,10.8-0.6c0.3,0.1,0.5-0.5,0.5-1.6c0,0,0.3-4.6,1-13.9c0-2.9-0.7-2.9-2.8-4c-1.7-0.8-4.5-2.2-8.6-4.1
			c-0.3-0.1-0.4-0.4-0.5-0.7c-0.1-0.5,0.1-0.8,0.3-1.2c0.3-0.7,0.7-1.5,1-2.2c0.7-1.4,1.3-2.8,1.9-4.2c0.1-0.3,0.1-0.6-0.1-0.9
			c0,0-1.3-1.4-4.2-3.8c-0.8-0.7-1.4-1.3-2.3-1.8c-1.8-1.1-3.9-0.9-5.5,0.3c-4.9,3.7-0.6,13.7-10.8,13.4
			c-10.3-0.3-5.5-9.7-10.6-13.4c-1.6-1.2-3.7-1.4-5.5-0.3c-0.8,0.5-1.5,1.1-2.3,1.8c-2.9,2.4-4.2,3.8-4.2,3.8
			c-0.2,0.3-0.3,0.6-0.1,0.9c0.6,1.4,1.2,2.8,1.9,4.2c0.3,0.7,0.7,1.5,1,2.2c0.2,0.4,0.4,0.7,0.3,1.2c-0.1,0.3-0.2,0.5-0.5,0.7
			c-4.2,2-7.1,3.4-8.7,4.2c-2,1-2.6,1.1-2.6,3.9c0.7,9.2,1,13.9,1,13.9c0,1.2,0.2,1.7,0.5,1.6C13.7,48.3,17.3,48.5,21,49.8L21,49.8z
			 M54.6,15.4c-1.5,0-2.7,1.2-2.7,2.7c0,1.5,1.2,2.7,2.7,2.7c1.5,0,2.7-1.2,2.7-2.7C57.3,16.6,56.1,15.4,54.6,15.4L54.6,15.4z
			 M25.7,15.4c-1.5,0-2.7,1.2-2.7,2.7c0,1.5,1.2,2.7,2.7,2.7s2.7-1.2,2.7-2.7C28.3,16.6,27.2,15.4,25.7,15.4L25.7,15.4z M20,32.1
			c2.9,0,5.2,2.3,5.2,5.2c0,2.9-2.3,5.2-5.2,5.2s-5.2-2.3-5.2-5.2C14.8,34.4,17.2,32.1,20,32.1L20,32.1z M26.8,40.1
			c-1.9,0-3.5,1.6-3.5,3.5s1.6,3.5,3.5,3.5c1.9,0,3.5-1.6,3.5-3.5S28.7,40.1,26.8,40.1L26.8,40.1z M53.2,40.1c1.9,0,3.5,1.6,3.5,3.5
			S55.1,47,53.2,47c-1.9,0-3.5-1.6-3.5-3.5S51.3,40.1,53.2,40.1L53.2,40.1z M60,32.1c-2.9,0-5.2,2.3-5.2,5.2c0,2.9,2.3,5.2,5.2,5.2
			c2.9,0,5.2-2.3,5.2-5.2C65.2,34.4,62.8,32.1,60,32.1L60,32.1z"/>
	</g>
</g>
</svg>
